<<<<<<< HEAD
[17:31:18] WARNING: duration < 3600!
[17:31:18] WARNING: filling 100% of the playlist with random musics
=======
[17:12:09] INFO: created logger 'log' in logger
[17:12:09] DEBUG: handlers: 3
[17:12:09] INFO: connecting to database...
[17:12:09] INFO: Connected to database!
[17:12:09] INFO: all queries done, total musics count: 0
[17:12:09] WARNING: filling 100 of the playlist with random musics
[17:12:09] INFO: creating music list of lenght > args.duration*prop
[17:12:09] DEBUG: column==titre ; expr==.* ; prop==100
[17:12:09] INFO: getting matching result from database...
[17:12:09] DEBUG: column==titre expr==.*
[17:12:09] DEBUG: query==SELECT chemin, duree FROM morceaux WHERE titre ~ '.*' 
[17:12:09] INFO: rows found:1402
[17:12:09] INFO: created sub music list
[17:12:09] DEBUG: count: 1238 ; duration: 360155 ; expected duration: 360000
[17:12:09] INFO: disconnecting from database...
[17:12:09] INFO: mixed musics
[17:12:09] INFO: mixed final playlist
[17:12:09] INFO: outputing to console...
>>>>>>> bf4f677c0cbb55d253a68ebad088298d4a9a5f68
