<<<<<<< HEAD
[17:34:55] INFO: created logger 'log' in logger
[17:34:55] DEBUG: handlers: 3
[17:34:55] WARNING: duration < 3600!
[17:34:55] INFO: connecting to database...
[17:34:55] INFO: Connected to database!
[17:34:55] INFO: all queries done, total musics count: 0
[17:34:55] WARNING: filling 100% of the playlist with random musics
[17:34:55] DEBUG: filling 100% for titre matching .*
[17:34:55] INFO: creating music list of lenght > args.duration*prop
[17:34:55] DEBUG: column==titre ; expr==.* ; prop==1.0
[17:34:55] INFO: getting matching result from database...
[17:34:55] DEBUG: column==titre expr==.*
[17:34:55] DEBUG: query==SELECT chemin, duree FROM morceaux WHERE titre ~ '.*' 
[17:34:55] INFO: rows found:1402
[17:34:55] INFO: created sub music list
[17:34:55] DEBUG: count: 8 ; duration: 2826 ; expected duration: 2000.0
[17:34:55] INFO: disconnecting from database...
[17:34:55] INFO: mixed musics
[17:34:55] INFO: mixed final playlist
[17:34:55] INFO: outputing to console...
=======
[17:13:06] INFO: created logger 'log' in logger
[17:13:06] DEBUG: handlers: 3
[17:13:06] INFO: connecting to database...
[17:13:06] INFO: Connected to database!
[17:13:06] INFO: all queries done, total musics count: 0
[17:13:06] WARNING: filling 100 of the playlist with random musics
[17:13:06] INFO: creating music list of lenght > args.duration*prop
[17:13:06] DEBUG: column==titre ; expr==.* ; prop==100
[17:13:06] INFO: getting matching result from database...
[17:13:06] DEBUG: column==titre expr==.*
[17:13:06] DEBUG: query==SELECT chemin, duree FROM morceaux WHERE titre ~ '.*' 
[17:13:06] INFO: rows found:1402
[17:13:06] INFO: created sub music list
[17:13:06] DEBUG: count: 1243 ; duration: 360317 ; expected duration: 360000
[17:13:06] INFO: disconnecting from database...
[17:13:06] INFO: mixed musics
[17:13:06] INFO: mixed final playlist
[17:13:06] INFO: outputing to console...
>>>>>>> bf4f677c0cbb55d253a68ebad088298d4a9a5f68
