<<<<<<< HEAD
[17:31:26] WARNING: duration < 3600!
[17:31:26] WARNING: filling 100% of the playlist with random musics
=======
[17:12:50] INFO: created logger 'log' in logger
[17:12:50] DEBUG: handlers: 3
[17:12:50] INFO: connecting to database...
[17:12:50] INFO: Connected to database!
[17:12:50] INFO: all queries done, total musics count: 0
[17:12:50] WARNING: filling 100 of the playlist with random musics
[17:12:50] INFO: creating music list of lenght > args.duration*prop
[17:12:50] DEBUG: column==titre ; expr==.* ; prop==100
[17:12:50] INFO: getting matching result from database...
[17:12:50] DEBUG: column==titre expr==.*
[17:12:50] DEBUG: query==SELECT chemin, duree FROM morceaux WHERE titre ~ '.*' 
[17:12:50] INFO: rows found:1402
[17:12:50] INFO: created sub music list
[17:12:50] DEBUG: count: 1220 ; duration: 360137 ; expected duration: 360000
[17:12:50] INFO: disconnecting from database...
[17:12:50] INFO: mixed musics
[17:12:50] INFO: mixed final playlist
[17:12:50] INFO: outputing to console...
>>>>>>> bf4f677c0cbb55d253a68ebad088298d4a9a5f68
