<<<<<<< HEAD
[17:28:49] WARNING: duration < 3600!
[17:28:49] WARNING: filling 1% of the playlist with random musics
=======
[17:07:38] INFO: created logger 'log' in logger
[17:07:38] DEBUG: handlers: 3
[17:07:38] INFO: connecting to database...
[17:07:38] INFO: Connected to database!
[17:07:38] INFO: all queries done, total musics count: 0
[17:07:38] WARNING: filling 100 of the playlist with random musics
[17:07:38] INFO: creating music list of lenght > args.duration*prop
[17:07:38] DEBUG: column==titre ; expr==.* ; prop==100
[17:07:38] INFO: getting matching result from database...
[17:07:38] DEBUG: column==titre expr==.*
[17:07:38] DEBUG: query==SELECT chemin, duree FROM morceaux WHERE titre ~ '.*' 
[17:07:38] INFO: rows found:1402
[17:07:38] INFO: created sub music list
[17:07:38] DEBUG: count: 1225 ; duration: 360001 ; expected duration: 360000
[17:07:38] INFO: disconnecting from database...
[17:07:38] INFO: mixed musics
[17:07:38] INFO: mixed final playlist
[17:07:38] INFO: outputing to console...
>>>>>>> bf4f677c0cbb55d253a68ebad088298d4a9a5f68
